<?xml version="1.0" encoding="iso-8859-1"?>
<!-- Generator: Adobe Illustrator 19.1.0, SVG Export Plug-In . SVG Version: 6.00 Build 0)  -->
<svg version="1.1" xmlns="http://www.w3.org/2000/svg" xmlns:xlink="http://www.w3.org/1999/xlink" x="0px" y="0px"
	 viewBox="0 0 44.907 38.074" style="enable-background:new 0 0 44.907 38.074;" xml:space="preserve">
<g id="clubs1">
	<path style="fill:#262729;" d="M33.396,18.746c1.841-1.822,2.9-4.314,2.9-6.955c0-5.397-4.391-9.788-9.788-9.788
		c-1.059,0-2.079,0.171-3.035,0.484C21.896,0.949,19.742,0,17.364,0C12.53,0,8.611,3.919,8.611,8.754
		c0,3.026,1.536,5.693,3.87,7.265C5.268,18.473,0,26.108,0,34.003h8.352c-0.158,1-0.243,2.015-0.243,3.037v1.034h36.797V37.04
		C44.907,29.276,40.158,21.867,33.396,18.746z M10.209,36.006c0.04-0.674,0.12-1.342,0.236-2.003
		c1.114-6.348,5.615-11.961,11.513-13.968l1.974-0.672l-1.729-1.165c-2.137-1.44-3.413-3.835-3.413-6.408
		c0-3.694,2.609-6.789,6.081-7.543c0.528-0.115,1.076-0.177,1.638-0.177c4.257,0,7.72,3.463,7.72,7.72
		c0,2.573-1.276,4.968-3.414,6.408l-1.73,1.165l1.974,0.672c6.512,2.216,11.321,8.828,11.749,15.971H10.209z"/>
</g>
<g id="Layer_1">
</g>
</svg>
