<?xml version="1.0" encoding="iso-8859-1"?>
<!-- Generator: Adobe Illustrator 19.1.0, SVG Export Plug-In . SVG Version: 6.00 Build 0)  -->
<svg version="1.1" xmlns="http://www.w3.org/2000/svg" xmlns:xlink="http://www.w3.org/1999/xlink" x="0px" y="0px"
	 viewBox="0 0 51.322 33.293" style="enable-background:new 0 0 51.322 33.293;" xml:space="preserve">
<g id="scholarships">
	<g>
		<path style="fill:#262729;" d="M50.757,10.705l-0.138-0.138l-0.085-0.035c-0.006-0.007-0.008-0.015-0.014-0.022L28.542,0.107
			c-0.26-0.091-0.856-0.187-1.376,0L0.284,10.94c-0.379,0.379-0.379,0.998,0,1.376l11.965,5.606v7.454c0,0,0.986,1.364,3.676,2.695
			v1.16l0.246,0.273c0.139,0.155,3.508,3.788,12.339,3.788c9.545,0,12.295-3.715,12.408-3.873l0.177-0.249V17.714l3.424-1.49v2.532
			c-0.439,0.302-0.728,0.807-0.728,1.38c0,0.573,0.289,1.078,0.728,1.38v1.571h1.893v-1.571c0.439-0.302,0.728-0.807,0.728-1.38
			c0-0.573-0.289-1.078-0.728-1.38v-3.355l4.217-1.835l0.128-0.128c0.365-0.364,0.566-0.849,0.566-1.367
			C51.322,11.554,51.121,11.069,50.757,10.705z M39.177,18.633v9.863c-0.7,0.682-3.514,2.879-10.667,2.879
			c-4.809,0-7.794-1.16-9.402-2.073c-0.61-0.346-1.029-0.658-1.265-0.856v-7.903v-1.985l9.596,4.184l0.13,0.046
			c0.35,0.096,0.635,0.137,0.911,0.137c0.298,0,0.585-0.048,0.931-0.127l6.09-2.65l4.206-1.83L39.177,18.633z M39.408,16.365h-0.231
			v0.101l-3.676,1.602l-6.602,2.878c-0.353,0.077-0.486,0.079-0.761,0.008l-15.889-6.928l-4.472-1.95l20.368-8.27
			c0.252-0.09,0.607-0.043,0.692-0.014l20.405,8.284L39.408,16.365z"/>
		<g>
			<path style="fill:#262729;" d="M29.48,7.584c0.513,0,1.044,0.067,1.595,0.199c0.551,0.133,1.035,0.366,1.453,0.698l-1.367,1.666
				c-0.228-0.199-0.489-0.344-0.784-0.435c-0.294-0.09-0.594-0.144-0.897-0.163v2.265l1.367,0.399
				c0.627,0.19,1.128,0.501,1.503,0.933c0.375,0.432,0.563,0.981,0.563,1.646c0,0.503-0.09,0.945-0.271,1.324
				c-0.181,0.38-0.427,0.703-0.741,0.969c-0.314,0.266-0.679,0.475-1.097,0.627c-0.418,0.152-0.86,0.252-1.324,0.299v0.997h-0.94
				v-0.997c-0.627,0-1.251-0.086-1.873-0.256c-0.622-0.171-1.17-0.47-1.645-0.898l1.51-1.695c0.247,0.304,0.546,0.52,0.897,0.648
				c0.351,0.128,0.722,0.206,1.111,0.235v-2.407l-1.04-0.314c-0.722-0.228-1.271-0.548-1.646-0.961
				c-0.375-0.413-0.562-0.981-0.562-1.702c0-0.446,0.09-0.85,0.271-1.211c0.18-0.361,0.42-0.669,0.719-0.926
				c0.299-0.256,0.646-0.465,1.04-0.627c0.394-0.161,0.8-0.266,1.218-0.314V6.587h0.94V7.584z M28.539,9.592
				c-0.266,0.057-0.504,0.157-0.712,0.3c-0.209,0.142-0.314,0.366-0.314,0.669c0,0.219,0.043,0.389,0.129,0.512
				c0.085,0.124,0.185,0.221,0.299,0.292c0.114,0.071,0.228,0.121,0.342,0.15c0.114,0.028,0.199,0.052,0.256,0.071V9.592z
				 M29.48,16.016c0.143-0.028,0.287-0.068,0.434-0.121c0.147-0.052,0.278-0.121,0.392-0.206c0.114-0.085,0.207-0.187,0.278-0.306
				c0.071-0.119,0.107-0.259,0.107-0.42c0-0.152-0.026-0.28-0.078-0.385c-0.053-0.104-0.121-0.192-0.207-0.264
				c-0.085-0.071-0.185-0.133-0.299-0.185c-0.114-0.052-0.232-0.102-0.356-0.15l-0.271-0.1V16.016z"/>
		</g>
	</g>
</g>
<g id="Layer_1">
</g>
</svg>
