<?xml version="1.0" encoding="utf-8"?>
<!-- Generator: Adobe Illustrator 23.0.0, SVG Export Plug-In . SVG Version: 6.00 Build 0)  -->
<svg version="1.1" id="Layer_1" xmlns="http://www.w3.org/2000/svg" xmlns:xlink="http://www.w3.org/1999/xlink" x="0px" y="0px"
	 viewBox="0 0 207 200" style="enable-background:new 0 0 207 200;" xml:space="preserve">
<style type="text/css">
	
		.st0{fill-rule:evenodd;clip-rule:evenodd;fill:#FFFFFF;stroke:#FFFFFF;stroke-width:9;stroke-linecap:square;stroke-linejoin:bevel;stroke-miterlimit:10;}
	.st1{fill-rule:evenodd;clip-rule:evenodd;fill:#FFFFFF;stroke:#FFFFFF;stroke-miterlimit:10;}
	.st2{fill-rule:evenodd;clip-rule:evenodd;fill:#FFFFFF;stroke:#FFFFFF;stroke-linecap:square;stroke-miterlimit:10;}
</style>
<polygon class="st0" points="17.5,99.5 108.5,35.5 198.5,99.5 "/>
<polygon class="st1" points="45.5,180.5 90.5,180.5 90.5,144.5 126.5,144.5 126.5,180.5 171.5,180.5 171.5,99.5 45.5,99.5 "/>
<polygon class="st2" points="143.5,35.5 171.5,35.5 171,81 143.5,62.5 "/>
</svg>
