<?xml version="1.0" encoding="utf-8"?>
<!-- Generator: Adobe Illustrator 23.0.0, SVG Export Plug-In . SVG Version: 6.00 Build 0)  -->
<svg version="1.1" xmlns="http://www.w3.org/2000/svg" xmlns:xlink="http://www.w3.org/1999/xlink" x="0px" y="0px"
	 viewBox="0 0 227 227" style="enable-background:new 0 0 227 227;" xml:space="preserve">
<style type="text/css">
	.st0{fill:#135F84;}
	.st1{fill:#FFFFFF;}
</style>
<g id="Layer_2">
	<rect x="0" class="st0" width="227" height="227"/>
</g>
<g id="Layer_1">
	<title>plus-icon</title>
	<g>
		<path class="st1" d="M173.1,124.2h-48.2v50.6h-22.5v-50.6H53.9v-21.6h48.4V52.2h22.5v50.4h48.2V124.2z"/>
	</g>
</g>
</svg>
