<?xml version="1.0" encoding="utf-8"?>
<!-- Generator: Adobe Illustrator 19.1.0, SVG Export Plug-In . SVG Version: 6.00 Build 0)  -->
<svg version="1.1" id="Layer_1" xmlns="http://www.w3.org/2000/svg" xmlns:xlink="http://www.w3.org/1999/xlink" x="0px" y="0px"
	 width="360px" height="360px" viewBox="172 -172 360 360" style="enable-background:new 172 -172 360 360;" xml:space="preserve">
<style type="text/css">
	.st0{fill:#002348;}
</style>
<title>search</title>
<path class="st0" d="M527,158.9L454.3,86C476.8,57.9,489,23,489-13c0-87.7-71.1-159-158.5-159S172-100.7,172-13s71.1,159,158.5,159
	c36.5,0,71.8-12.6,100-35.7L503,183c6.6,6.6,17.3,6.6,24,0c0,0,0,0,0,0C533.6,176.3,533.6,165.6,527,158.9z M330.5,111.9
	C261.8,111.9,206,55.8,206-13s55.8-124.9,124.5-124.9S455-81.9,455-13S399.1,111.9,330.5,111.9z"/>
</svg>
